{"content": [
    {
        "shopId": 874958276101120,
        "name": "南京幼狮汽车维修有限公司",
        "thumbnailImage": "http://image.huijiacn.com/874962029937664.jpg",
        "score": 2,
        "shopScore": 0.0,
        "saleAmount": 0,
        "distance": 453,
        "specialSkill": null,
        "tagCode": null,
        "lng": 118.77624933,
        "lat": 32.05088319,
        "fixedTel": "13776686111",
        "phone": "13776686111",
        "areaCode": "320106",
        "areaName": "鼓楼区",
        "address": "江苏省南京市鼓楼区广州路140号随园大厦一层",
        "groupon": false,
        "favorite": false
    },
    {
        "shopId": 804391831241728,
        "name": "南京市白下区蒋利刚汽车服务中心",
        "thumbnailImage": "http://image.huijiacn.com/812557093422080.jpg",
        "score": 0,
        "shopScore": 0.0,
        "saleAmount": 1,
        "distance": 1339,
        "specialSkill": null,
        "tagCode": ["rest", "wifi"],
        "lng": 118.7675446,
        "lat": 32.03995216,
        "fixedTel": null,
        "phone": "13913964192",
        "areaCode": "320104",
        "areaName": "秦淮区",
        "address": "江苏省南京市秦淮区柏果树4号",
        "groupon": true,
        "favorite": false
    },
    {
        "shopId": 807159997383680,
        "name": "奇丽雅汽车服务中心",
        "thumbnailImage": "http://image.huijiacn.com/807168906675200.jpg",
        "score": 0,
        "shopScore": 0.0,
        "saleAmount": 1,
        "distance": 2011,
        "specialSkill": null,
        "tagCode": ["sunshine"],
        "lng": 118.75235451,
        "lat": 32.04355964,
        "fixedTel": null,
        "phone": "15189833835",
        "areaCode": "320106",
        "areaName": "鼓楼区",
        "address": "江苏省南京市鼓楼区北圩路教工新村",
        "groupon": true,
        "favorite": false
    },
    {
        "shopId": 801161076884480,
        "name": "南京市鼓楼区富泽汽车服务中心",
        "thumbnailImage": "http://image.huijiacn.com/801163863360512.JPG",
        "score": 0,
        "shopScore": 0.0,
        "saleAmount": 0,
        "distance": 2346,
        "specialSkill": null,
        "tagCode": ["rest", "sunshine", "wifi"],
        "lng": 118.76267107,
        "lat": 32.0712055,
        "fixedTel": "02583734086",
        "phone": "13851949883",
        "areaCode": "320106",
        "areaName": "鼓楼区",
        "address": "江苏省南京市鼓楼区鼓楼区模范中路27号（中国石油水估岗加油站内）",
        "groupon": true,
        "favorite": false
    },
    {
        "shopId": 866802234557440,
        "name": "南京海源弗客汽车服务会所",
        "thumbnailImage": "http://image.huijiacn.com/866812336210944.jpg",
        "score": 0,
        "shopScore": 0.0,
        "saleAmount": 0,
        "distance": 2568,
        "specialSkill": null,
        "tagCode": ["rest", "sunshine", "wifi"],
        "lng": 118.74489231,
        "lat": 32.04665378,
        "fixedTel": "13851877067",
        "phone": "13851877067",
        "areaCode": "320106",
        "areaName": "鼓楼区",
        "address": "江苏省南京市鼓楼区清凉门大街92号",
        "groupon": false,
        "favorite": false
    },
    {
        "shopId": 775842966488064,
        "name": "南京宝润汽车维修服务有限公司",
        "thumbnailImage": "http://image.huijiacn.com/775847106446336.jpg",
        "score": 0,
        "shopScore": 0.0,
        "saleAmount": 0,
        "distance": 2575,
        "specialSkill": null,
        "tagCode": null,
        "lng": 118.744258,
        "lat": 32.052862,
        "fixedTel": "13813962200",
        "phone": "13813962200",
        "areaCode": "320106",
        "areaName": "鼓楼区",
        "address": "江苏省南京市鼓楼区龙江白云园小区23号",
        "groupon": true,
        "favorite": false
    },
    {
        "shopId": 804482922808320,
        "name": "南京大霞汽车服务中心",
        "thumbnailImage": "http://image.huijiacn.com/843240216495104.JPG",
        "score": 0,
        "shopScore": 0.0,
        "saleAmount": 1,
        "distance": 2612,
        "specialSkill": null,
        "tagCode": ["sunshine"],
        "lng": 118.76429876,
        "lat": 32.0741561,
        "fixedTel": "02583461783",
        "phone": "18913368346",
        "areaCode": "320106",
        "areaName": "鼓楼区",
        "address": "江苏省南京市鼓楼区中山北路259号南京饭店停车场",
        "groupon": true,
        "favorite": false
    },
    {
        "shopId": 710716617999360,
        "name": "南京市鼓楼区台轩汽车租赁服务部",
        "thumbnailImage": "http://image.huijiacn.com/722814147691520.jpg",
        "score": 0,
        "shopScore": 0.0,
        "saleAmount": 21,
        "distance": 2708,
        "specialSkill": null,
        "tagCode": ["wifi"],
        "lng": 118.78433406,
        "lat": 32.07326026,
        "fixedTel": null,
        "phone": "13382778884",
        "areaCode": "320106",
        "areaName": "鼓楼区",
        "address": "江苏省南京市鼓楼区中央路224号（红星家具城内）",
        "groupon": false,
        "favorite": false
    },
    {
        "shopId": 722835801457664,
        "name": "南京鑫途睿汽车维修服务有限公司",
        "thumbnailImage": "http://image.huijiacn.com/722837273691136.jpg",
        "score": 0,
        "shopScore": 0.0,
        "saleAmount": 0,
        "distance": 2994,
        "specialSkill": null,
        "tagCode": null,
        "lng": 118.74220456,
        "lat": 32.0618447,
        "fixedTel": "02557903399",
        "phone": "13913832674",
        "areaCode": "320106",
        "areaName": "鼓楼区",
        "address": "江苏省南京市鼓楼区龙口小区宝地园25幢一楼",
        "groupon": true,
        "favorite": false
    },
    {
        "shopId": 716690088543232,
        "name": "南京市秦淮区先生雨汽车服务部",
        "thumbnailImage": "http://image.huijiacn.com/728069704369152.jpg",
        "score": 0,
        "shopScore": 0.0,
        "saleAmount": 1,
        "distance": 3012,
        "specialSkill": null,
        "tagCode": ["rest", "wifi"],
        "lng": 118.7714643,
        "lat": 32.02444335,
        "fixedTel": null,
        "phone": "13951922983",
        "areaCode": "320104",
        "areaName": "秦淮区",
        "address": "江苏省南京市秦淮区菱角市93号3幢2单元102室",
        "groupon": true,
        "favorite": false
    }
], "sort": [
    {
        "direction": "ASC",
        "property": "0",
        "ignoreCase": false,
        "ascending": true
    }
], "totalElements": 24, "totalPages": 3, "numberOfElements": 10, "firstPage": true, "lastPage": false, "size": 10, "number": 0}